{
  "skynet_url": "http://localhost",
  "skynet_port": 3000,
  "skynet_botready_endpoint": "/botready",
  "api_url": "http://localhost",
  "api_port": 3001,
  "api_endpoint": "/data",
  "bots_scrap_endpoint": "/scrap",
  "bots_url": "http://localhost"
}